{
    "service_name": "sfdx-ci-summary-creator",
    "source_files": [
        {
            "name": "tt_UtilController.cls",
            "coverage": [
                1,
                1,
                1,
                1,
                1,
                1,
                1,
                1,
                1,
                1,
                1,
                1,
                1,
                1,
                1,
                1
            ]
        },
        {
            "name": "PicklistXlass.cls",
            "coverage": [
                null,
                0
            ]
        },
        {
            "name": "RRR.cls",
            "coverage": [
                null,
                null,
                null,
                0
            ]
        },
        {
            "name": "TestCL.cls",
            "coverage": [
                null,
                null,
                0
            ]
        },
        {
            "name": "TestClassAura.cls",
            "coverage": [
                null,
                0
            ]
        },
        {
            "name": "TTTTT.cls",
            "coverage": [
                null,
                0
            ]
        },
        {
            "name": "TestTrigger.trigger",
            "coverage": [
                1,
                1,
                1,
                1,
                1
            ]
        }
    ]
}